module github.com/kYem/dota-dashboard

go 1.15

require (
	github.com/gomodule/redigo v1.7.0
	github.com/gorilla/websocket v1.4.2
	github.com/nicklaw5/helix v1.19.0
	github.com/niemeyer/pretty v0.0.0-20200227124842-a10e7caefd8e // indirect
	github.com/satori/go.uuid v1.2.0
	github.com/sirupsen/logrus v1.4.0
	gopkg.in/check.v1 v1.0.0-20200227125254-8fa46927fb4f // indirect
)
